{
  "attachments": [
    {
      "color": "#dcd8e1",
      "blocks": [
        {
          "type": "section",
          "text": {
            "type": "mrkdwn",
            "text": "*Infracost output*\n```──────────────────────────────────\nProject: infracost/infracost-gitlab-ci/examples/terraform-project/code/dev\nModule path: dev\n\n~ module.base.aws_instance.web_app\n  +$25 ($52 → $77)\n\n    ~ Instance usage (Linux/UNIX, on-demand, t2.micro → t2.medium)\n      +$25 ($8 → $34)\n\nMonthly cost change for infracost/infracost-gitlab-ci/examples/terraform-project/code/dev (Module path: dev)\nAmount:  +$25 ($52 → $77)\nPercent: +49%\n\n──────────────────────────────────\nProject: infracost/infracost-gitlab-ci/examples/terraform-project/code/prod\nModule path: prod\n\n~ module.base.aws_instance.web_app\n  +$561 ($748 → $1,308)\n\n    ~ Instance usage (Linux/UNIX, on-demand, m5.4xlarge → m5.8xlarge)\n      +$561 ($561 → $1,121)\n\nMonthly cost change for infracost/infracost-gitlab-ci/examples/terraform-project/code/prod (Module path: prod)\nAmount:  +$561 ($748 → $1,308)\nPercent: +75%\n\n──────────────────────────────────\nKey: ~ changed, + added, - removed\n\n4 cloud resources were detected:\n∙ 4 were estimated, all of which include usage-based costs, see https://infracost.io/usage-file\n\nInfracost estimate: Monthly cost will increase by $586 ↑\n┏━━━━━━━━━━━━━━━━━━━━━━━━━━━━━━━━━━━━━━━━━━━━━━━━━━━━━━━━━━━━━━━━━━┳━━━━━━━━━━━━━━┳━━━━━━━━━━━━━━━━━━┓\n┃ Project                                                          ┃ Cost change  ┃ New monthly cost ┃\n┣━━━━━━━━━━━━━━━━━━━━━━━━━━━━━━━━━━━━━━━━━━━━━━━━━━━━━━━━━━━━━━━━━━╋━━━━━━━━━━━━━━╋━━━━━━━━━━━━━━━━━━┫\n┃ infracost/infracost-gitlab-ci/e...les/terraform-project/code/dev ┃  +$25 (+49%) ┃ $77              ┃\n┃ infracost/infracost-gitlab-ci/e...es/terraform-project/code/prod ┃ +$561 (+75%) ┃ $1,308           ┃\n┗━━━━━━━━━━━━━━━━━━━━━━━━━━━━━━━━━━━━━━━━━━━━━━━━━━━━━━━━━━━━━━━━━━┻━━━━━━━━━━━━━━┻━━━━━━━━━━━━━━━━━━┛```"
          }
        }
      ]
    }
  ],
  "blocks": [
    {
      "type": "section",
      "text": {
        "type": "mrkdwn",
        "text": "💰 Infracost estimate: *Monthly cost will increase by $586 📈*"
      }
    },
    {
      "type": "divider"
    },
    {
      "type": "section",
      "fields": [
        {
          "type": "plain_text",
          "text": "Project"
        },
        {
          "type": "plain_text",
          "text": "Diff"
        },
        {
          "type": "plain_text",
          "text": "infracost/infracost-...rm-project/code/dev"
        },
        {
          "type": "plain_text",
          "text": "+$25 ($52 → $77)"
        },
        {
          "type": "plain_text",
          "text": "infracost/infracost-...m-project/code/prod"
        },
        {
          "type": "plain_text",
          "text": "+$561 ($748 → $1,308)"
        },
        {
          "type": "plain_text",
          "text": "All projects"
        },
        {
          "type": "plain_text",
          "text": "+$586 ($800 → $1,386)"
        }
      ]
    }
  ],
  "replace_original": false,
  "delete_original": false
}
